linux_backup/0408_counter/simv.log
Info: [VCS_SAVE_RESTORE_INFO] ASLR (Address Space Layout Randomization) is detected on the machine. To enable $save functionality, ASLR will be switched off and simv re-executed.
Please use '-no_save' simv switch to avoid re-execution or '-suppress=ASLR_DETECTED_INFO' to suppress this message.
Chronologic VCS simulator copyright 1991-2024
Contains Synopsys proprietary information.
Compiler version W-2024.09-SP1_Full64; Runtime version W-2024.09-SP1_Full64;  Apr  8 15:43 2026
UVM_INFO /tools/synopsys/vcs/W-2024.09-SP1/etc/uvm-1.2/base/uvm_root.svh(402) @ 0: reporter [UVM/RELNOTES] 
----------------------------------------------------------------
UVM-1.2.Synopsys
(C) 2007-2014 Mentor Graphics Corporation
(C) 2007-2014 Cadence Design Systems, Inc.
(C) 2006-2014 Synopsys, Inc.
(C) 2011-2013 Cypress Semiconductor Corp.
(C) 2013-2014 NVIDIA Corporation
----------------------------------------------------------------

  ***********       IMPORTANT RELEASE NOTES         ************

  You are using a version of the UVM library that has been compiled
  with `UVM_NO_DEPRECATED undefined.
  See http://www.eda.org/svdb/view.php?id=3313 for more details.

  You are using a version of the UVM library that has been compiled
  with `UVM_OBJECT_DO_NOT_NEED_CONSTRUCTOR undefined.
  See http://www.eda.org/svdb/view.php?id=3770 for more details.

      (Specify +UVM_NO_RELNOTES to turn off this notice)

UVM_INFO @ 0: reporter [RNTST] Running test counter_test...
UVM_INFO ./tb/tb_counter.sv(140) @ 0: uvm_test_top.env.agt.drv [counter_driver] build_phase 실행 완료.
UVM_INFO ./tb/tb_counter.sv(216) @ 6000: uvm_test_top.env.cov [counter_coverage] counter_cg sampled: rst_n=0 enable=0 cycles=0 count=x
UVM_INFO ./tb/tb_counter.sv(253) @ 6000: uvm_test_top.env.scb [counter_scoreboard] Received: rst_n=0 enable=0 cycles=0 count=x
UVM_INFO ./tb/tb_counter.sv(257) @ 6000: uvm_test_top.env.scb [counter_scoreboard] Initial state: rst_n=0 enable=0 cycles=0 count=x
UVM_INFO ./tb/tb_counter.sv(190) @ 6000: uvm_test_top.env.agt.mon [counter_monitor] rst_n=0 enable=0 cycles=0 count=x
UVM_INFO ./tb/tb_counter.sv(148) @ 15000: uvm_test_top.env.agt.drv [counter_driver] drive_cycles: 2
UVM_INFO ./tb/tb_counter.sv(149) @ 15000: uvm_test_top.env.agt.drv [counter_driver] rst_n=0 enable=0 cycles=2 count=x
UVM_INFO ./tb/tb_counter.sv(66) @ 15000: uvm_test_top.env.agt.sqr@@reset_seq [counter_reset_seq] Reset Done!
UVM_INFO ./tb/tb_counter.sv(216) @ 16000: uvm_test_top.env.cov [counter_coverage] counter_cg sampled: rst_n=0 enable=0 cycles=0 count=0
UVM_INFO ./tb/tb_counter.sv(253) @ 16000: uvm_test_top.env.scb [counter_scoreboard] Received: rst_n=0 enable=0 cycles=0 count=0
UVM_INFO ./tb/tb_counter.sv(267) @ 16000: uvm_test_top.env.scb [counter_scoreboard] MATCH!: expected=0, count=0 (rst_n=0, enable=0)
UVM_INFO ./tb/tb_counter.sv(190) @ 16000: uvm_test_top.env.agt.mon [counter_monitor] rst_n=0 enable=0 cycles=0 count=0
UVM_INFO ./tb/tb_counter.sv(216) @ 26000: uvm_test_top.env.cov [counter_coverage] counter_cg sampled: rst_n=1 enable=1 cycles=0 count=0
UVM_INFO ./tb/tb_counter.sv(253) @ 26000: uvm_test_top.env.scb [counter_scoreboard] Received: rst_n=1 enable=1 cycles=0 count=0
UVM_INFO ./tb/tb_counter.sv(267) @ 26000: uvm_test_top.env.scb [counter_scoreboard] MATCH!: expected=0, count=0 (rst_n=1, enable=1)
UVM_INFO ./tb/tb_counter.sv(190) @ 26000: uvm_test_top.env.agt.mon [counter_monitor] rst_n=1 enable=1 cycles=0 count=0
UVM_INFO ./tb/tb_counter.sv(216) @ 36000: uvm_test_top.env.cov [counter_coverage] counter_cg sampled: rst_n=1 enable=1 cycles=0 count=1
UVM_INFO ./tb/tb_counter.sv(253) @ 36000: uvm_test_top.env.scb [counter_scoreboard] Received: rst_n=1 enable=1 cycles=0 count=1
UVM_INFO ./tb/tb_counter.sv(267) @ 36000: uvm_test_top.env.scb [counter_scoreboard] MATCH!: expected=1, count=1 (rst_n=1, enable=1)
UVM_INFO ./tb/tb_counter.sv(190) @ 36000: uvm_test_top.env.agt.mon [counter_monitor] rst_n=1 enable=1 cycles=0 count=1
UVM_INFO ./tb/tb_counter.sv(216) @ 46000: uvm_test_top.env.cov [counter_coverage] counter_cg sampled: rst_n=1 enable=1 cycles=0 count=2
UVM_INFO ./tb/tb_counter.sv(253) @ 46000: uvm_test_top.env.scb [counter_scoreboard] Received: rst_n=1 enable=1 cycles=0 count=2
UVM_INFO ./tb/tb_counter.sv(267) @ 46000: uvm_test_top.env.scb [counter_scoreboard] MATCH!: expected=2, count=2 (rst_n=1, enable=1)
UVM_INFO ./tb/tb_counter.sv(190) @ 46000: uvm_test_top.env.agt.mon [counter_monitor] rst_n=1 enable=1 cycles=0 count=2
UVM_INFO ./tb/tb_counter.sv(216) @ 56000: uvm_test_top.env.cov [counter_coverage] counter_cg sampled: rst_n=1 enable=1 cycles=0 count=3
UVM_INFO ./tb/tb_counter.sv(253) @ 56000: uvm_test_top.env.scb [counter_scoreboard] Received: rst_n=1 enable=1 cycles=0 count=3
UVM_INFO ./tb/tb_counter.sv(267) @ 56000: uvm_test_top.env.scb [counter_scoreboard] MATCH!: expected=3, count=3 (rst_n=1, enable=1)
UVM_INFO ./tb/tb_counter.sv(190) @ 56000: uvm_test_top.env.agt.mon [counter_monitor] rst_n=1 enable=1 cycles=0 count=3
UVM_INFO ./tb/tb_counter.sv(148) @ 65000: uvm_test_top.env.agt.drv [counter_driver] drive_cycles: 5
UVM_INFO ./tb/tb_counter.sv(149) @ 65000: uvm_test_top.env.agt.drv [counter_driver] rst_n=1 enable=1 cycles=5 count=x
UVM_INFO ./tb/tb_counter.sv(94) @ 65000: uvm_test_top.env.agt.sqr@@count_seq [counter_count_seq] [1/5] rst_n=1 enable=1 cycles=5 count=x
UVM_INFO ./tb/tb_counter.sv(216) @ 66000: uvm_test_top.env.cov [counter_coverage] counter_cg sampled: rst_n=1 enable=1 cycles=0 count=4
UVM_INFO ./tb/tb_counter.sv(253) @ 66000: uvm_test_top.env.scb [counter_scoreboard] Received: rst_n=1 enable=1 cycles=0 count=4
UVM_INFO ./tb/tb_counter.sv(267) @ 66000: uvm_test_top.env.scb [counter_scoreboard] MATCH!: expected=4, count=4 (rst_n=1, enable=1)
UVM_INFO ./tb/tb_counter.sv(190) @ 66000: uvm_test_top.env.agt.mon [counter_monitor] rst_n=1 enable=1 cycles=0 count=4
UVM_INFO ./tb/tb_counter.sv(148) @ 75000: uvm_test_top.env.agt.drv [counter_driver] drive_cycles: 1
UVM_INFO ./tb/tb_counter.sv(149) @ 75000: uvm_test_top.env.agt.drv [counter_driver] rst_n=1 enable=1 cycles=1 count=x
UVM_INFO ./tb/tb_counter.sv(94) @ 75000: uvm_test_top.env.agt.sqr@@count_seq [counter_count_seq] [2/5] rst_n=1 enable=1 cycles=1 count=x
UVM_INFO ./tb/tb_counter.sv(216) @ 76000: uvm_test_top.env.cov [counter_coverage] counter_cg sampled: rst_n=1 enable=1 cycles=0 count=5
UVM_INFO ./tb/tb_counter.sv(253) @ 76000: uvm_test_top.env.scb [counter_scoreboard] Received: rst_n=1 enable=1 cycles=0 count=5
UVM_INFO ./tb/tb_counter.sv(267) @ 76000: uvm_test_top.env.scb [counter_scoreboard] MATCH!: expected=5, count=5 (rst_n=1, enable=1)
UVM_INFO ./tb/tb_counter.sv(190) @ 76000: uvm_test_top.env.agt.mon [counter_monitor] rst_n=1 enable=1 cycles=0 count=5
UVM_INFO ./tb/tb_counter.sv(216) @ 86000: uvm_test_top.env.cov [counter_coverage] counter_cg sampled: rst_n=1 enable=1 cycles=0 count=6
UVM_INFO ./tb/tb_counter.sv(253) @ 86000: uvm_test_top.env.scb [counter_scoreboard] Received: rst_n=1 enable=1 cycles=0 count=6
UVM_INFO ./tb/tb_counter.sv(267) @ 86000: uvm_test_top.env.scb [counter_scoreboard] MATCH!: expected=6, count=6 (rst_n=1, enable=1)
UVM_INFO ./tb/tb_counter.sv(190) @ 86000: uvm_test_top.env.agt.mon [counter_monitor] rst_n=1 enable=1 cycles=0 count=6
UVM_INFO ./tb/tb_counter.sv(148) @ 95000: uvm_test_top.env.agt.drv [counter_driver] drive_cycles: 2
UVM_INFO ./tb/tb_counter.sv(149) @ 95000: uvm_test_top.env.agt.drv [counter_driver] rst_n=1 enable=1 cycles=2 count=x
UVM_INFO ./tb/tb_counter.sv(94) @ 95000: uvm_test_top.env.agt.sqr@@count_seq [counter_count_seq] [3/5] rst_n=1 enable=1 cycles=2 count=x
UVM_INFO ./tb/tb_counter.sv(216) @ 96000: uvm_test_top.env.cov [counter_coverage] counter_cg sampled: rst_n=1 enable=1 cycles=0 count=7
UVM_INFO ./tb/tb_counter.sv(253) @ 96000: uvm_test_top.env.scb [counter_scoreboard] Received: rst_n=1 enable=1 cycles=0 count=7
UVM_INFO ./tb/tb_counter.sv(267) @ 96000: uvm_test_top.env.scb [counter_scoreboard] MATCH!: expected=7, count=7 (rst_n=1, enable=1)
UVM_INFO ./tb/tb_counter.sv(190) @ 96000: uvm_test_top.env.agt.mon [counter_monitor] rst_n=1 enable=1 cycles=0 count=7
UVM_INFO ./tb/tb_counter.sv(148) @ 105000: uvm_test_top.env.agt.drv [counter_driver] drive_cycles: 1
UVM_INFO ./tb/tb_counter.sv(149) @ 105000: uvm_test_top.env.agt.drv [counter_driver] rst_n=1 enable=1 cycles=1 count=x
UVM_INFO ./tb/tb_counter.sv(94) @ 105000: uvm_test_top.env.agt.sqr@@count_seq [counter_count_seq] [4/5] rst_n=1 enable=1 cycles=1 count=x
UVM_INFO ./tb/tb_counter.sv(216) @ 106000: uvm_test_top.env.cov [counter_coverage] counter_cg sampled: rst_n=1 enable=1 cycles=0 count=8
UVM_INFO ./tb/tb_counter.sv(253) @ 106000: uvm_test_top.env.scb [counter_scoreboard] Received: rst_n=1 enable=1 cycles=0 count=8
UVM_INFO ./tb/tb_counter.sv(267) @ 106000: uvm_test_top.env.scb [counter_scoreboard] MATCH!: expected=8, count=8 (rst_n=1, enable=1)
UVM_INFO ./tb/tb_counter.sv(190) @ 106000: uvm_test_top.env.agt.mon [counter_monitor] rst_n=1 enable=1 cycles=0 count=8
UVM_INFO ./tb/tb_counter.sv(216) @ 116000: uvm_test_top.env.cov [counter_coverage] counter_cg sampled: rst_n=1 enable=1 cycles=0 count=9
UVM_INFO ./tb/tb_counter.sv(253) @ 116000: uvm_test_top.env.scb [counter_scoreboard] Received: rst_n=1 enable=1 cycles=0 count=9
UVM_INFO ./tb/tb_counter.sv(267) @ 116000: uvm_test_top.env.scb [counter_scoreboard] MATCH!: expected=9, count=9 (rst_n=1, enable=1)
UVM_INFO ./tb/tb_counter.sv(190) @ 116000: uvm_test_top.env.agt.mon [counter_monitor] rst_n=1 enable=1 cycles=0 count=9
UVM_INFO ./tb/tb_counter.sv(216) @ 126000: uvm_test_top.env.cov [counter_coverage] counter_cg sampled: rst_n=1 enable=1 cycles=0 count=a
UVM_INFO ./tb/tb_counter.sv(253) @ 126000: uvm_test_top.env.scb [counter_scoreboard] Received: rst_n=1 enable=1 cycles=0 count=a
UVM_INFO ./tb/tb_counter.sv(267) @ 126000: uvm_test_top.env.scb [counter_scoreboard] MATCH!: expected=10, count=10 (rst_n=1, enable=1)
UVM_INFO ./tb/tb_counter.sv(190) @ 126000: uvm_test_top.env.agt.mon [counter_monitor] rst_n=1 enable=1 cycles=0 count=a
UVM_INFO ./tb/tb_counter.sv(216) @ 136000: uvm_test_top.env.cov [counter_coverage] counter_cg sampled: rst_n=1 enable=1 cycles=0 count=b
UVM_INFO ./tb/tb_counter.sv(253) @ 136000: uvm_test_top.env.scb [counter_scoreboard] Received: rst_n=1 enable=1 cycles=0 count=b
UVM_INFO ./tb/tb_counter.sv(267) @ 136000: uvm_test_top.env.scb [counter_scoreboard] MATCH!: expected=11, count=11 (rst_n=1, enable=1)
UVM_INFO ./tb/tb_counter.sv(190) @ 136000: uvm_test_top.env.agt.mon [counter_monitor] rst_n=1 enable=1 cycles=0 count=b
UVM_INFO ./tb/tb_counter.sv(216) @ 146000: uvm_test_top.env.cov [counter_coverage] counter_cg sampled: rst_n=1 enable=1 cycles=0 count=c
UVM_INFO ./tb/tb_counter.sv(253) @ 146000: uvm_test_top.env.scb [counter_scoreboard] Received: rst_n=1 enable=1 cycles=0 count=c
UVM_INFO ./tb/tb_counter.sv(267) @ 146000: uvm_test_top.env.scb [counter_scoreboard] MATCH!: expected=12, count=12 (rst_n=1, enable=1)
UVM_INFO ./tb/tb_counter.sv(190) @ 146000: uvm_test_top.env.agt.mon [counter_monitor] rst_n=1 enable=1 cycles=0 count=c
UVM_INFO ./tb/tb_counter.sv(148) @ 155000: uvm_test_top.env.agt.drv [counter_driver] drive_cycles: 5
UVM_INFO ./tb/tb_counter.sv(149) @ 155000: uvm_test_top.env.agt.drv [counter_driver] rst_n=1 enable=1 cycles=5 count=x
UVM_INFO ./tb/tb_counter.sv(94) @ 155000: uvm_test_top.env.agt.sqr@@count_seq [counter_count_seq] [5/5] rst_n=1 enable=1 cycles=5 count=x
UVM_INFO /tools/synopsys/vcs/W-2024.09-SP1/etc/uvm-1.2/base/uvm_objection.svh(1276) @ 155000: reporter [TEST_DONE] 'run' phase is ready to proceed to the 'extract' phase
UVM_INFO ./tb/tb_counter.sv(219) @ 155000: uvm_test_top.env.cov [counter_coverage] 

===== Coverage Summary =====
UVM_INFO ./tb/tb_counter.sv(220) @ 155000: uvm_test_top.env.cov [counter_coverage]    Overall: 91.7%
UVM_INFO ./tb/tb_counter.sv(221) @ 155000: uvm_test_top.env.cov [counter_coverage]    rst_n  : 100.0%
UVM_INFO ./tb/tb_counter.sv(222) @ 155000: uvm_test_top.env.cov [counter_coverage]    enable : 100.0%
UVM_INFO ./tb/tb_counter.sv(223) @ 155000: uvm_test_top.env.cov [counter_coverage]    count  : 75.0%
UVM_INFO ./tb/tb_counter.sv(224) @ 155000: uvm_test_top.env.cov [counter_coverage] ===== Coverage Summary =====


UVM_INFO ./tb/tb_counter.sv(282) @ 155000: uvm_test_top.env.scb [counter_scoreboard]  ===== Scoreboad Summary =====
UVM_INFO ./tb/tb_counter.sv(283) @ 155000: uvm_test_top.env.scb [counter_scoreboard]   Total transactions: 14
UVM_INFO ./tb/tb_counter.sv(284) @ 155000: uvm_test_top.env.scb [counter_scoreboard]   Matches: 14
UVM_INFO ./tb/tb_counter.sv(285) @ 155000: uvm_test_top.env.scb [counter_scoreboard]   Error: 0
UVM_INFO ./tb/tb_counter.sv(291) @ 155000: uvm_test_top.env.scb [counter_scoreboard] TEST PASSED: 14 matches detected!
UVM_INFO ./tb/tb_counter.sv(392) @ 155000: uvm_test_top [counter_test] ===== TEST PASS ! =====
UVM_INFO /tools/synopsys/vcs/W-2024.09-SP1/etc/uvm-1.2/base/uvm_root.svh(589) @ 155000: reporter [UVMTOP] UVM testbench topology:
--------------------------------------------------------------
Name                       Type                    Size  Value
--------------------------------------------------------------
uvm_test_top               counter_test            -     @342 
  env                      counter_environment     -     @355 
    agt                    counter_agent           -     @364 
      drv                  counter_driver          -     @549 
        rsp_port           uvm_analysis_port       -     @568 
        seq_item_port      uvm_seq_item_pull_port  -     @558 
      mon                  counter_monitor         -     @578 
        ap                 uvm_analysis_port       -     @587 
      sqr                  uvm_sequencer           -     @412 
        rsp_export         uvm_analysis_export     -     @421 
        seq_item_export    uvm_seq_item_pull_imp   -     @539 
        arbitration_queue  array                   0     -    
        lock_queue         array                   0     -    
        num_last_reqs      integral                32    'd1  
        num_last_rsps      integral                32    'd1  
    cov                    counter_coverage        -     @392 
      analysis_imp         uvm_analysis_imp        -     @401 
    scb                    counter_scoreboard      -     @373 
      ap_imp               uvm_analysis_imp        -     @382 
--------------------------------------------------------------

UVM_INFO /tools/synopsys/vcs/W-2024.09-SP1/etc/uvm-1.2/base/uvm_report_catcher.svh(705) @ 155000: reporter [UVM/REPORT/CATCHER] 
--- UVM Report catcher Summary ---


Number of demoted UVM_FATAL reports  :    0
Number of demoted UVM_ERROR reports  :    0
Number of demoted UVM_WARNING reports:    0
Number of caught UVM_FATAL reports   :    0
Number of caught UVM_ERROR reports   :    0
Number of caught UVM_WARNING reports :    0

UVM_INFO /tools/synopsys/vcs/W-2024.09-SP1/etc/uvm-1.2/base/uvm_report_server.svh(904) @ 155000: reporter [UVM/REPORT/SERVER] 
--- UVM Report Summary ---

** Report counts by severity
UVM_INFO :   96
UVM_WARNING :    0
UVM_ERROR :    0
UVM_FATAL :    0
** Report counts by id
[RNTST]     1
[TEST_DONE]     1
[UVM/RELNOTES]     1
[UVM/REPORT/CATCHER]     1
[UVMTOP]     1
[counter_count_seq]     5
[counter_coverage]    21
[counter_driver]    13
[counter_monitor]    15
[counter_reset_seq]     1
[counter_scoreboard]    35
[counter_test]     1

$finish called from file "/tools/synopsys/vcs/W-2024.09-SP1/etc/uvm-1.2/base/uvm_root.svh", line 527.
$finish at simulation time               155000
           V C S   S i m u l a t i o n   R e p o r t 
Time: 155000 ps
CPU Time:      0.200 seconds;       Data structure size:   0.6Mb
Wed Apr  8 15:43:35 2026
