linux_backup/0409_ram/simv_random.log
Info: [VCS_SAVE_RESTORE_INFO] ASLR (Address Space Layout Randomization) is detected on the machine. To enable $save functionality, ASLR will be switched off and simv re-executed.
Please use '-no_save' simv switch to avoid re-execution or '-suppress=ASLR_DETECTED_INFO' to suppress this message.
Chronologic VCS simulator copyright 1991-2024
Contains Synopsys proprietary information.
Compiler version W-2024.09-SP1_Full64; Runtime version W-2024.09-SP1_Full64;  Apr  9 19:22 2026
UVM_INFO /tools/synopsys/vcs/W-2024.09-SP1/etc/uvm-1.2/base/uvm_root.svh(402) @ 0: reporter [UVM/RELNOTES] 
----------------------------------------------------------------
UVM-1.2.Synopsys
(C) 2007-2014 Mentor Graphics Corporation
(C) 2007-2014 Cadence Design Systems, Inc.
(C) 2006-2014 Synopsys, Inc.
(C) 2011-2013 Cypress Semiconductor Corp.
(C) 2013-2014 NVIDIA Corporation
----------------------------------------------------------------

  ***********       IMPORTANT RELEASE NOTES         ************

  You are using a version of the UVM library that has been compiled
  with `UVM_NO_DEPRECATED undefined.
  See http://www.eda.org/svdb/view.php?id=3313 for more details.

  You are using a version of the UVM library that has been compiled
  with `UVM_OBJECT_DO_NOT_NEED_CONSTRUCTOR undefined.
  See http://www.eda.org/svdb/view.php?id=3770 for more details.

      (Specify +UVM_NO_RELNOTES to turn off this notice)


 VCS Coverage Metrics Release W-2024.09-SP1_Full64 Copyright (c) 1991-2024 by Synopsys Inc.
UVM_INFO @ 0: reporter [RNTST] Running test ram_random_test...
*Verdi* Loading libsscore_vcs202409.so
FSDB Dumper for VCS, Release Verdi_W-2024.09-SP2, Linux x86_64/64bit, 03/03/2025
(C) 1996 - 2025 by Synopsys, Inc.
*Verdi* FSDB WARNING: The FSDB file already exists. Overwriting the FSDB file may crash the programs that are using this file.
*Verdi* : Create FSDB file 'novas.fsdb'
*Verdi* ERROR: The #1 argument is invalid
*Verdi* ERROR: The #2 argument is invalid
*Verdi* ERROR: The #3 argument is invalid
*Verdi* ERROR: Syntax - $fsdbDumpfile("FSDB_Name"[,Limit_Size]);	: ./tb/tb_ram.sv(38)
UVM_INFO tb/ram_monitor.sv(41) @ 5000: uvm_test_top.env.agt.mon [ram_monitor] wr=x addr=0xxx wdata=0xxxxx rdata=0xxxxx
UVM_INFO tb/ram_coverage.sv(39) @ 5000: uvm_test_top.env.cov [ram_coverage] ram_cg sampled: wr=x addr=0xxx wdata=0xxxxx rdata=0xxxxx
UVM_INFO tb/ram_scoreboard.sv(39) @ 5000: uvm_test_top.env.scb [ram_scoreboard] PASS: addr=0xxx, expected=0xxxxx, real=0xxxxx
UVM_INFO tb/ram_driver.sv(38) @ 5000: uvm_test_top.env.agt.drv [ram_driver] wr=1 addr=0x85 wdata=0x12ed rdata=0xxxxx
UVM_INFO tb/ram_monitor.sv(41) @ 15000: uvm_test_top.env.agt.mon [ram_monitor] wr=1 addr=0x8d wdata=0xd133 rdata=0xxxxx
UVM_INFO tb/ram_coverage.sv(39) @ 15000: uvm_test_top.env.cov [ram_coverage] ram_cg sampled: wr=1 addr=0x8d wdata=0xd133 rdata=0xxxxx
UVM_INFO tb/ram_scoreboard.sv(34) @ 15000: uvm_test_top.env.scb [ram_scoreboard] 쓰기 기록: addr=0x8d, data=0xd133
UVM_INFO tb/ram_driver.sv(38) @ 15000: uvm_test_top.env.agt.drv [ram_driver] wr=1 addr=0x8d wdata=0xd133 rdata=0xxxxx
UVM_INFO tb/ram_monitor.sv(41) @ 25000: uvm_test_top.env.agt.mon [ram_monitor] wr=1 addr=0x3d wdata=0x5a5d rdata=0xxxxx
UVM_INFO tb/ram_coverage.sv(39) @ 25000: uvm_test_top.env.cov [ram_coverage] ram_cg sampled: wr=1 addr=0x3d wdata=0x5a5d rdata=0xxxxx
UVM_INFO tb/ram_scoreboard.sv(34) @ 25000: uvm_test_top.env.scb [ram_scoreboard] 쓰기 기록: addr=0x3d, data=0x5a5d
UVM_INFO tb/ram_driver.sv(38) @ 25000: uvm_test_top.env.agt.drv [ram_driver] wr=1 addr=0x3d wdata=0x5a5d rdata=0xxxxx
UVM_INFO tb/ram_monitor.sv(41) @ 45000: uvm_test_top.env.agt.mon [ram_monitor] wr=0 addr=0x05 wdata=0xd4a6 rdata=0xxxxx
UVM_INFO tb/ram_coverage.sv(39) @ 45000: uvm_test_top.env.cov [ram_coverage] ram_cg sampled: wr=0 addr=0x05 wdata=0xd4a6 rdata=0xxxxx
UVM_INFO tb/ram_scoreboard.sv(39) @ 45000: uvm_test_top.env.scb [ram_scoreboard] PASS: addr=0x05, expected=0xxxxx, real=0xxxxx
UVM_INFO tb/ram_driver.sv(38) @ 45000: uvm_test_top.env.agt.drv [ram_driver] wr=0 addr=0x05 wdata=0xd4a6 rdata=0xxxxx
UVM_INFO tb/ram_monitor.sv(41) @ 65000: uvm_test_top.env.agt.mon [ram_monitor] wr=0 addr=0xf5 wdata=0xa368 rdata=0xxxxx
UVM_INFO tb/ram_coverage.sv(39) @ 65000: uvm_test_top.env.cov [ram_coverage] ram_cg sampled: wr=0 addr=0xf5 wdata=0xa368 rdata=0xxxxx
UVM_INFO tb/ram_scoreboard.sv(39) @ 65000: uvm_test_top.env.scb [ram_scoreboard] PASS: addr=0xf5, expected=0xxxxx, real=0xxxxx
UVM_INFO tb/ram_driver.sv(38) @ 65000: uvm_test_top.env.agt.drv [ram_driver] wr=0 addr=0xf5 wdata=0xa368 rdata=0xxxxx
UVM_INFO tb/ram_monitor.sv(41) @ 85000: uvm_test_top.env.agt.mon [ram_monitor] wr=0 addr=0x8c wdata=0x1740 rdata=0xxxxx
UVM_INFO tb/ram_coverage.sv(39) @ 85000: uvm_test_top.env.cov [ram_coverage] ram_cg sampled: wr=0 addr=0x8c wdata=0x1740 rdata=0xxxxx
UVM_INFO tb/ram_scoreboard.sv(39) @ 85000: uvm_test_top.env.scb [ram_scoreboard] PASS: addr=0x8c, expected=0xxxxx, real=0xxxxx
UVM_INFO tb/ram_driver.sv(38) @ 85000: uvm_test_top.env.agt.drv [ram_driver] wr=0 addr=0x8c wdata=0x1740 rdata=0xxxxx
UVM_INFO tb/ram_monitor.sv(41) @ 95000: uvm_test_top.env.agt.mon [ram_monitor] wr=1 addr=0x17 wdata=0xd5df rdata=0xxxxx
UVM_INFO tb/ram_coverage.sv(39) @ 95000: uvm_test_top.env.cov [ram_coverage] ram_cg sampled: wr=1 addr=0x17 wdata=0xd5df rdata=0xxxxx
UVM_INFO tb/ram_scoreboard.sv(34) @ 95000: uvm_test_top.env.scb [ram_scoreboard] 쓰기 기록: addr=0x17, data=0xd5df
UVM_INFO tb/ram_driver.sv(38) @ 95000: uvm_test_top.env.agt.drv [ram_driver] wr=1 addr=0x17 wdata=0xd5df rdata=0xxxxx
UVM_INFO tb/ram_monitor.sv(41) @ 115000: uvm_test_top.env.agt.mon [ram_monitor] wr=0 addr=0xe3 wdata=0xe538 rdata=0xxxxx
UVM_INFO tb/ram_coverage.sv(39) @ 115000: uvm_test_top.env.cov [ram_coverage] ram_cg sampled: wr=0 addr=0xe3 wdata=0xe538 rdata=0xxxxx
UVM_INFO tb/ram_scoreboard.sv(39) @ 115000: uvm_test_top.env.scb [ram_scoreboard] PASS: addr=0xe3, expected=0xxxxx, real=0xxxxx
UVM_INFO tb/ram_driver.sv(38) @ 115000: uvm_test_top.env.agt.drv [ram_driver] wr=0 addr=0xe3 wdata=0xe538 rdata=0xxxxx
UVM_INFO tb/ram_monitor.sv(41) @ 135000: uvm_test_top.env.agt.mon [ram_monitor] wr=0 addr=0x6d wdata=0x5a6b rdata=0xxxxx
UVM_INFO tb/ram_coverage.sv(39) @ 135000: uvm_test_top.env.cov [ram_coverage] ram_cg sampled: wr=0 addr=0x6d wdata=0x5a6b rdata=0xxxxx
UVM_INFO tb/ram_scoreboard.sv(39) @ 135000: uvm_test_top.env.scb [ram_scoreboard] PASS: addr=0x6d, expected=0xxxxx, real=0xxxxx
UVM_INFO tb/ram_driver.sv(38) @ 135000: uvm_test_top.env.agt.drv [ram_driver] wr=0 addr=0x6d wdata=0x5a6b rdata=0xxxxx
UVM_INFO tb/ram_monitor.sv(41) @ 155000: uvm_test_top.env.agt.mon [ram_monitor] wr=0 addr=0x3d wdata=0xd88e rdata=0x5a5d
UVM_INFO tb/ram_coverage.sv(39) @ 155000: uvm_test_top.env.cov [ram_coverage] ram_cg sampled: wr=0 addr=0x3d wdata=0xd88e rdata=0x5a5d
UVM_INFO tb/ram_scoreboard.sv(39) @ 155000: uvm_test_top.env.scb [ram_scoreboard] PASS: addr=0x3d, expected=0x5a5d, real=0x5a5d
UVM_INFO tb/ram_driver.sv(38) @ 155000: uvm_test_top.env.agt.drv [ram_driver] wr=0 addr=0x3d wdata=0xd88e rdata=0xxxxx
UVM_INFO tb/ram_monitor.sv(41) @ 165000: uvm_test_top.env.agt.mon [ram_monitor] wr=1 addr=0x0f wdata=0xbabd rdata=0xxxxx
UVM_INFO tb/ram_coverage.sv(39) @ 165000: uvm_test_top.env.cov [ram_coverage] ram_cg sampled: wr=1 addr=0x0f wdata=0xbabd rdata=0xxxxx
UVM_INFO tb/ram_scoreboard.sv(34) @ 165000: uvm_test_top.env.scb [ram_scoreboard] 쓰기 기록: addr=0x0f, data=0xbabd
UVM_INFO tb/ram_driver.sv(38) @ 165000: uvm_test_top.env.agt.drv [ram_driver] wr=1 addr=0x0f wdata=0xbabd rdata=0xxxxx
UVM_INFO tb/ram_monitor.sv(41) @ 185000: uvm_test_top.env.agt.mon [ram_monitor] wr=0 addr=0x01 wdata=0x18f5 rdata=0xxxxx
UVM_INFO tb/ram_coverage.sv(39) @ 185000: uvm_test_top.env.cov [ram_coverage] ram_cg sampled: wr=0 addr=0x01 wdata=0x18f5 rdata=0xxxxx
UVM_INFO tb/ram_scoreboard.sv(39) @ 185000: uvm_test_top.env.scb [ram_scoreboard] PASS: addr=0x01, expected=0xxxxx, real=0xxxxx
UVM_INFO tb/ram_driver.sv(38) @ 185000: uvm_test_top.env.agt.drv [ram_driver] wr=0 addr=0x01 wdata=0x18f5 rdata=0xxxxx
UVM_INFO tb/ram_monitor.sv(41) @ 195000: uvm_test_top.env.agt.mon [ram_monitor] wr=1 addr=0x1a wdata=0x58fe rdata=0xxxxx
UVM_INFO tb/ram_coverage.sv(39) @ 195000: uvm_test_top.env.cov [ram_coverage] ram_cg sampled: wr=1 addr=0x1a wdata=0x58fe rdata=0xxxxx
UVM_INFO tb/ram_scoreboard.sv(34) @ 195000: uvm_test_top.env.scb [ram_scoreboard] 쓰기 기록: addr=0x1a, data=0x58fe
UVM_INFO tb/ram_driver.sv(38) @ 195000: uvm_test_top.env.agt.drv [ram_driver] wr=1 addr=0x1a wdata=0x58fe rdata=0xxxxx
UVM_INFO tb/ram_monitor.sv(41) @ 215000: uvm_test_top.env.agt.mon [ram_monitor] wr=0 addr=0x71 wdata=0xadb1 rdata=0xxxxx
UVM_INFO tb/ram_coverage.sv(39) @ 215000: uvm_test_top.env.cov [ram_coverage] ram_cg sampled: wr=0 addr=0x71 wdata=0xadb1 rdata=0xxxxx
UVM_INFO tb/ram_scoreboard.sv(39) @ 215000: uvm_test_top.env.scb [ram_scoreboard] PASS: addr=0x71, expected=0xxxxx, real=0xxxxx
UVM_INFO tb/ram_driver.sv(38) @ 215000: uvm_test_top.env.agt.drv [ram_driver] wr=0 addr=0x71 wdata=0xadb1 rdata=0xxxxx
UVM_INFO tb/ram_monitor.sv(41) @ 225000: uvm_test_top.env.agt.mon [ram_monitor] wr=1 addr=0x7c wdata=0xf350 rdata=0xxxxx
UVM_INFO tb/ram_coverage.sv(39) @ 225000: uvm_test_top.env.cov [ram_coverage] ram_cg sampled: wr=1 addr=0x7c wdata=0xf350 rdata=0xxxxx
UVM_INFO tb/ram_scoreboard.sv(34) @ 225000: uvm_test_top.env.scb [ram_scoreboard] 쓰기 기록: addr=0x7c, data=0xf350
UVM_INFO tb/ram_driver.sv(38) @ 225000: uvm_test_top.env.agt.drv [ram_driver] wr=1 addr=0x7c wdata=0xf350 rdata=0xxxxx
UVM_INFO tb/ram_monitor.sv(41) @ 245000: uvm_test_top.env.agt.mon [ram_monitor] wr=0 addr=0x15 wdata=0xa3a5 rdata=0xxxxx
UVM_INFO tb/ram_coverage.sv(39) @ 245000: uvm_test_top.env.cov [ram_coverage] ram_cg sampled: wr=0 addr=0x15 wdata=0xa3a5 rdata=0xxxxx
UVM_INFO tb/ram_scoreboard.sv(39) @ 245000: uvm_test_top.env.scb [ram_scoreboard] PASS: addr=0x15, expected=0xxxxx, real=0xxxxx
UVM_INFO tb/ram_driver.sv(38) @ 245000: uvm_test_top.env.agt.drv [ram_driver] wr=0 addr=0x15 wdata=0xa3a5 rdata=0xxxxx
UVM_INFO tb/ram_monitor.sv(41) @ 265000: uvm_test_top.env.agt.mon [ram_monitor] wr=0 addr=0x7b wdata=0x1ef0 rdata=0xxxxx
UVM_INFO tb/ram_coverage.sv(39) @ 265000: uvm_test_top.env.cov [ram_coverage] ram_cg sampled: wr=0 addr=0x7b wdata=0x1ef0 rdata=0xxxxx
UVM_INFO tb/ram_scoreboard.sv(39) @ 265000: uvm_test_top.env.scb [ram_scoreboard] PASS: addr=0x7b, expected=0xxxxx, real=0xxxxx
UVM_INFO tb/ram_driver.sv(38) @ 265000: uvm_test_top.env.agt.drv [ram_driver] wr=0 addr=0x7b wdata=0x1ef0 rdata=0xxxxx
UVM_INFO tb/ram_monitor.sv(41) @ 275000: uvm_test_top.env.agt.mon [ram_monitor] wr=1 addr=0x24 wdata=0xcd88 rdata=0xxxxx
UVM_INFO tb/ram_coverage.sv(39) @ 275000: uvm_test_top.env.cov [ram_coverage] ram_cg sampled: wr=1 addr=0x24 wdata=0xcd88 rdata=0xxxxx
UVM_INFO tb/ram_scoreboard.sv(34) @ 275000: uvm_test_top.env.scb [ram_scoreboard] 쓰기 기록: addr=0x24, data=0xcd88
UVM_INFO tb/ram_driver.sv(38) @ 275000: uvm_test_top.env.agt.drv [ram_driver] wr=1 addr=0x24 wdata=0xcd88 rdata=0xxxxx
UVM_INFO tb/ram_monitor.sv(41) @ 295000: uvm_test_top.env.agt.mon [ram_monitor] wr=0 addr=0x3e wdata=0xd466 rdata=0xxxxx
UVM_INFO tb/ram_coverage.sv(39) @ 295000: uvm_test_top.env.cov [ram_coverage] ram_cg sampled: wr=0 addr=0x3e wdata=0xd466 rdata=0xxxxx
UVM_INFO tb/ram_scoreboard.sv(39) @ 295000: uvm_test_top.env.scb [ram_scoreboard] PASS: addr=0x3e, expected=0xxxxx, real=0xxxxx
UVM_INFO tb/ram_driver.sv(38) @ 295000: uvm_test_top.env.agt.drv [ram_driver] wr=0 addr=0x3e wdata=0xd466 rdata=0xxxxx
UVM_INFO tb/ram_monitor.sv(41) @ 305000: uvm_test_top.env.agt.mon [ram_monitor] wr=1 addr=0xb0 wdata=0x8a80 rdata=0xxxxx
UVM_INFO tb/ram_coverage.sv(39) @ 305000: uvm_test_top.env.cov [ram_coverage] ram_cg sampled: wr=1 addr=0xb0 wdata=0x8a80 rdata=0xxxxx
UVM_INFO tb/ram_scoreboard.sv(34) @ 305000: uvm_test_top.env.scb [ram_scoreboard] 쓰기 기록: addr=0xb0, data=0x8a80
UVM_INFO tb/ram_driver.sv(38) @ 305000: uvm_test_top.env.agt.drv [ram_driver] wr=1 addr=0xb0 wdata=0x8a80 rdata=0xxxxx
UVM_INFO tb/ram_monitor.sv(41) @ 325000: uvm_test_top.env.agt.mon [ram_monitor] wr=0 addr=0x0b wdata=0x9f26 rdata=0xxxxx
UVM_INFO tb/ram_coverage.sv(39) @ 325000: uvm_test_top.env.cov [ram_coverage] ram_cg sampled: wr=0 addr=0x0b wdata=0x9f26 rdata=0xxxxx
UVM_INFO tb/ram_scoreboard.sv(39) @ 325000: uvm_test_top.env.scb [ram_scoreboard] PASS: addr=0x0b, expected=0xxxxx, real=0xxxxx
UVM_INFO tb/ram_driver.sv(38) @ 325000: uvm_test_top.env.agt.drv [ram_driver] wr=0 addr=0x0b wdata=0x9f26 rdata=0xxxxx
UVM_INFO tb/ram_monitor.sv(41) @ 335000: uvm_test_top.env.agt.mon [ram_monitor] wr=1 addr=0xee wdata=0xa445 rdata=0xxxxx
UVM_INFO tb/ram_coverage.sv(39) @ 335000: uvm_test_top.env.cov [ram_coverage] ram_cg sampled: wr=1 addr=0xee wdata=0xa445 rdata=0xxxxx
UVM_INFO tb/ram_scoreboard.sv(34) @ 335000: uvm_test_top.env.scb [ram_scoreboard] 쓰기 기록: addr=0xee, data=0xa445
UVM_INFO tb/ram_driver.sv(38) @ 335000: uvm_test_top.env.agt.drv [ram_driver] wr=1 addr=0xee wdata=0xa445 rdata=0xxxxx
UVM_INFO tb/ram_monitor.sv(41) @ 345000: uvm_test_top.env.agt.mon [ram_monitor] wr=1 addr=0x29 wdata=0xd722 rdata=0xxxxx
UVM_INFO tb/ram_coverage.sv(39) @ 345000: uvm_test_top.env.cov [ram_coverage] ram_cg sampled: wr=1 addr=0x29 wdata=0xd722 rdata=0xxxxx
UVM_INFO tb/ram_scoreboard.sv(34) @ 345000: uvm_test_top.env.scb [ram_scoreboard] 쓰기 기록: addr=0x29, data=0xd722
UVM_INFO tb/ram_driver.sv(38) @ 345000: uvm_test_top.env.agt.drv [ram_driver] wr=1 addr=0x29 wdata=0xd722 rdata=0xxxxx
UVM_INFO tb/ram_monitor.sv(41) @ 365000: uvm_test_top.env.agt.mon [ram_monitor] wr=0 addr=0xf5 wdata=0x36a4 rdata=0xxxxx
UVM_INFO tb/ram_coverage.sv(39) @ 365000: uvm_test_top.env.cov [ram_coverage] ram_cg sampled: wr=0 addr=0xf5 wdata=0x36a4 rdata=0xxxxx
UVM_INFO tb/ram_scoreboard.sv(39) @ 365000: uvm_test_top.env.scb [ram_scoreboard] PASS: addr=0xf5, expected=0xxxxx, real=0xxxxx
UVM_INFO tb/ram_driver.sv(38) @ 365000: uvm_test_top.env.agt.drv [ram_driver] wr=0 addr=0xf5 wdata=0x36a4 rdata=0xxxxx
UVM_INFO tb/ram_monitor.sv(41) @ 375000: uvm_test_top.env.agt.mon [ram_monitor] wr=1 addr=0xbc wdata=0x8a5e rdata=0xxxxx
UVM_INFO tb/ram_coverage.sv(39) @ 375000: uvm_test_top.env.cov [ram_coverage] ram_cg sampled: wr=1 addr=0xbc wdata=0x8a5e rdata=0xxxxx
UVM_INFO tb/ram_scoreboard.sv(34) @ 375000: uvm_test_top.env.scb [ram_scoreboard] 쓰기 기록: addr=0xbc, data=0x8a5e
UVM_INFO tb/ram_driver.sv(38) @ 375000: uvm_test_top.env.agt.drv [ram_driver] wr=1 addr=0xbc wdata=0x8a5e rdata=0xxxxx
UVM_INFO tb/ram_monitor.sv(41) @ 385000: uvm_test_top.env.agt.mon [ram_monitor] wr=1 addr=0x72 wdata=0x752b rdata=0xxxxx
UVM_INFO tb/ram_coverage.sv(39) @ 385000: uvm_test_top.env.cov [ram_coverage] ram_cg sampled: wr=1 addr=0x72 wdata=0x752b rdata=0xxxxx
UVM_INFO tb/ram_scoreboard.sv(34) @ 385000: uvm_test_top.env.scb [ram_scoreboard] 쓰기 기록: addr=0x72, data=0x752b
UVM_INFO tb/ram_driver.sv(38) @ 385000: uvm_test_top.env.agt.drv [ram_driver] wr=1 addr=0x72 wdata=0x752b rdata=0xxxxx
UVM_INFO tb/ram_monitor.sv(41) @ 395000: uvm_test_top.env.agt.mon [ram_monitor] wr=1 addr=0x2d wdata=0x6f02 rdata=0xxxxx
UVM_INFO tb/ram_coverage.sv(39) @ 395000: uvm_test_top.env.cov [ram_coverage] ram_cg sampled: wr=1 addr=0x2d wdata=0x6f02 rdata=0xxxxx
UVM_INFO tb/ram_scoreboard.sv(34) @ 395000: uvm_test_top.env.scb [ram_scoreboard] 쓰기 기록: addr=0x2d, data=0x6f02
UVM_INFO tb/ram_driver.sv(38) @ 395000: uvm_test_top.env.agt.drv [ram_driver] wr=1 addr=0x2d wdata=0x6f02 rdata=0xxxxx
UVM_INFO tb/ram_monitor.sv(41) @ 405000: uvm_test_top.env.agt.mon [ram_monitor] wr=1 addr=0x7e wdata=0xfe8d rdata=0xxxxx
UVM_INFO tb/ram_coverage.sv(39) @ 405000: uvm_test_top.env.cov [ram_coverage] ram_cg sampled: wr=1 addr=0x7e wdata=0xfe8d rdata=0xxxxx
UVM_INFO tb/ram_scoreboard.sv(34) @ 405000: uvm_test_top.env.scb [ram_scoreboard] 쓰기 기록: addr=0x7e, data=0xfe8d
UVM_INFO tb/ram_driver.sv(38) @ 405000: uvm_test_top.env.agt.drv [ram_driver] wr=1 addr=0x7e wdata=0xfe8d rdata=0xxxxx
UVM_INFO tb/ram_monitor.sv(41) @ 425000: uvm_test_top.env.agt.mon [ram_monitor] wr=0 addr=0x2e wdata=0x7be2 rdata=0xxxxx
UVM_INFO tb/ram_coverage.sv(39) @ 425000: uvm_test_top.env.cov [ram_coverage] ram_cg sampled: wr=0 addr=0x2e wdata=0x7be2 rdata=0xxxxx
UVM_INFO tb/ram_scoreboard.sv(39) @ 425000: uvm_test_top.env.scb [ram_scoreboard] PASS: addr=0x2e, expected=0xxxxx, real=0xxxxx
UVM_INFO tb/ram_driver.sv(38) @ 425000: uvm_test_top.env.agt.drv [ram_driver] wr=0 addr=0x2e wdata=0x7be2 rdata=0xxxxx
UVM_INFO tb/ram_monitor.sv(41) @ 435000: uvm_test_top.env.agt.mon [ram_monitor] wr=1 addr=0x6b wdata=0x82ca rdata=0xxxxx
UVM_INFO tb/ram_coverage.sv(39) @ 435000: uvm_test_top.env.cov [ram_coverage] ram_cg sampled: wr=1 addr=0x6b wdata=0x82ca rdata=0xxxxx
UVM_INFO tb/ram_scoreboard.sv(34) @ 435000: uvm_test_top.env.scb [ram_scoreboard] 쓰기 기록: addr=0x6b, data=0x82ca
UVM_INFO tb/ram_driver.sv(38) @ 435000: uvm_test_top.env.agt.drv [ram_driver] wr=1 addr=0x6b wdata=0x82ca rdata=0xxxxx
UVM_INFO tb/ram_monitor.sv(41) @ 455000: uvm_test_top.env.agt.mon [ram_monitor] wr=0 addr=0xf6 wdata=0x6de3 rdata=0xxxxx
UVM_INFO tb/ram_coverage.sv(39) @ 455000: uvm_test_top.env.cov [ram_coverage] ram_cg sampled: wr=0 addr=0xf6 wdata=0x6de3 rdata=0xxxxx
UVM_INFO tb/ram_scoreboard.sv(39) @ 455000: uvm_test_top.env.scb [ram_scoreboard] PASS: addr=0xf6, expected=0xxxxx, real=0xxxxx
UVM_INFO tb/ram_driver.sv(38) @ 455000: uvm_test_top.env.agt.drv [ram_driver] wr=0 addr=0xf6 wdata=0x6de3 rdata=0xxxxx
UVM_INFO tb/ram_monitor.sv(41) @ 475000: uvm_test_top.env.agt.mon [ram_monitor] wr=0 addr=0x31 wdata=0x009c rdata=0xxxxx
UVM_INFO tb/ram_coverage.sv(39) @ 475000: uvm_test_top.env.cov [ram_coverage] ram_cg sampled: wr=0 addr=0x31 wdata=0x009c rdata=0xxxxx
UVM_INFO tb/ram_scoreboard.sv(39) @ 475000: uvm_test_top.env.scb [ram_scoreboard] PASS: addr=0x31, expected=0xxxxx, real=0xxxxx
UVM_INFO tb/ram_driver.sv(38) @ 475000: uvm_test_top.env.agt.drv [ram_driver] wr=0 addr=0x31 wdata=0x009c rdata=0xxxxx
UVM_INFO tb/ram_monitor.sv(41) @ 485000: uvm_test_top.env.agt.mon [ram_monitor] wr=1 addr=0xb2 wdata=0xca72 rdata=0xxxxx
UVM_INFO tb/ram_coverage.sv(39) @ 485000: uvm_test_top.env.cov [ram_coverage] ram_cg sampled: wr=1 addr=0xb2 wdata=0xca72 rdata=0xxxxx
UVM_INFO tb/ram_scoreboard.sv(34) @ 485000: uvm_test_top.env.scb [ram_scoreboard] 쓰기 기록: addr=0xb2, data=0xca72
UVM_INFO tb/ram_driver.sv(38) @ 485000: uvm_test_top.env.agt.drv [ram_driver] wr=1 addr=0xb2 wdata=0xca72 rdata=0xxxxx
UVM_INFO tb/ram_monitor.sv(41) @ 495000: uvm_test_top.env.agt.mon [ram_monitor] wr=1 addr=0x65 wdata=0xb489 rdata=0xxxxx
UVM_INFO tb/ram_coverage.sv(39) @ 495000: uvm_test_top.env.cov [ram_coverage] ram_cg sampled: wr=1 addr=0x65 wdata=0xb489 rdata=0xxxxx
UVM_INFO tb/ram_scoreboard.sv(34) @ 495000: uvm_test_top.env.scb [ram_scoreboard] 쓰기 기록: addr=0x65, data=0xb489
UVM_INFO tb/ram_driver.sv(38) @ 495000: uvm_test_top.env.agt.drv [ram_driver] wr=1 addr=0x65 wdata=0xb489 rdata=0xxxxx
UVM_INFO tb/ram_monitor.sv(41) @ 505000: uvm_test_top.env.agt.mon [ram_monitor] wr=1 addr=0xad wdata=0xf705 rdata=0xxxxx
UVM_INFO tb/ram_coverage.sv(39) @ 505000: uvm_test_top.env.cov [ram_coverage] ram_cg sampled: wr=1 addr=0xad wdata=0xf705 rdata=0xxxxx
UVM_INFO tb/ram_scoreboard.sv(34) @ 505000: uvm_test_top.env.scb [ram_scoreboard] 쓰기 기록: addr=0xad, data=0xf705
UVM_INFO tb/ram_driver.sv(38) @ 505000: uvm_test_top.env.agt.drv [ram_driver] wr=1 addr=0xad wdata=0xf705 rdata=0xxxxx
UVM_INFO tb/ram_monitor.sv(41) @ 525000: uvm_test_top.env.agt.mon [ram_monitor] wr=0 addr=0xbb wdata=0x526b rdata=0xxxxx
UVM_INFO tb/ram_coverage.sv(39) @ 525000: uvm_test_top.env.cov [ram_coverage] ram_cg sampled: wr=0 addr=0xbb wdata=0x526b rdata=0xxxxx
UVM_INFO tb/ram_scoreboard.sv(39) @ 525000: uvm_test_top.env.scb [ram_scoreboard] PASS: addr=0xbb, expected=0xxxxx, real=0xxxxx
UVM_INFO tb/ram_driver.sv(38) @ 525000: uvm_test_top.env.agt.drv [ram_driver] wr=0 addr=0xbb wdata=0x526b rdata=0xxxxx
UVM_INFO tb/ram_monitor.sv(41) @ 545000: uvm_test_top.env.agt.mon [ram_monitor] wr=0 addr=0xe3 wdata=0x00df rdata=0xxxxx
UVM_INFO tb/ram_coverage.sv(39) @ 545000: uvm_test_top.env.cov [ram_coverage] ram_cg sampled: wr=0 addr=0xe3 wdata=0x00df rdata=0xxxxx
UVM_INFO tb/ram_scoreboard.sv(39) @ 545000: uvm_test_top.env.scb [ram_scoreboard] PASS: addr=0xe3, expected=0xxxxx, real=0xxxxx
UVM_INFO tb/ram_driver.sv(38) @ 545000: uvm_test_top.env.agt.drv [ram_driver] wr=0 addr=0xe3 wdata=0x00df rdata=0xxxxx
UVM_INFO tb/ram_monitor.sv(41) @ 555000: uvm_test_top.env.agt.mon [ram_monitor] wr=1 addr=0x1c wdata=0xbf24 rdata=0xxxxx
UVM_INFO tb/ram_coverage.sv(39) @ 555000: uvm_test_top.env.cov [ram_coverage] ram_cg sampled: wr=1 addr=0x1c wdata=0xbf24 rdata=0xxxxx
UVM_INFO tb/ram_scoreboard.sv(34) @ 555000: uvm_test_top.env.scb [ram_scoreboard] 쓰기 기록: addr=0x1c, data=0xbf24
UVM_INFO tb/ram_driver.sv(38) @ 555000: uvm_test_top.env.agt.drv [ram_driver] wr=1 addr=0x1c wdata=0xbf24 rdata=0xxxxx
UVM_INFO tb/ram_monitor.sv(41) @ 565000: uvm_test_top.env.agt.mon [ram_monitor] wr=1 addr=0x69 wdata=0xedf4 rdata=0xxxxx
UVM_INFO tb/ram_coverage.sv(39) @ 565000: uvm_test_top.env.cov [ram_coverage] ram_cg sampled: wr=1 addr=0x69 wdata=0xedf4 rdata=0xxxxx
UVM_INFO tb/ram_scoreboard.sv(34) @ 565000: uvm_test_top.env.scb [ram_scoreboard] 쓰기 기록: addr=0x69, data=0xedf4
UVM_INFO tb/ram_driver.sv(38) @ 565000: uvm_test_top.env.agt.drv [ram_driver] wr=1 addr=0x69 wdata=0xedf4 rdata=0xxxxx
UVM_INFO tb/ram_monitor.sv(41) @ 585000: uvm_test_top.env.agt.mon [ram_monitor] wr=0 addr=0x8a wdata=0x6801 rdata=0xxxxx
UVM_INFO tb/ram_coverage.sv(39) @ 585000: uvm_test_top.env.cov [ram_coverage] ram_cg sampled: wr=0 addr=0x8a wdata=0x6801 rdata=0xxxxx
UVM_INFO tb/ram_scoreboard.sv(39) @ 585000: uvm_test_top.env.scb [ram_scoreboard] PASS: addr=0x8a, expected=0xxxxx, real=0xxxxx
UVM_INFO tb/ram_driver.sv(38) @ 585000: uvm_test_top.env.agt.drv [ram_driver] wr=0 addr=0x8a wdata=0x6801 rdata=0xxxxx
UVM_INFO tb/ram_monitor.sv(41) @ 595000: uvm_test_top.env.agt.mon [ram_monitor] wr=1 addr=0xe0 wdata=0x6d63 rdata=0xxxxx
UVM_INFO tb/ram_coverage.sv(39) @ 595000: uvm_test_top.env.cov [ram_coverage] ram_cg sampled: wr=1 addr=0xe0 wdata=0x6d63 rdata=0xxxxx
UVM_INFO tb/ram_scoreboard.sv(34) @ 595000: uvm_test_top.env.scb [ram_scoreboard] 쓰기 기록: addr=0xe0, data=0x6d63
UVM_INFO tb/ram_driver.sv(38) @ 595000: uvm_test_top.env.agt.drv [ram_driver] wr=1 addr=0xe0 wdata=0x6d63 rdata=0xxxxx
UVM_INFO tb/ram_monitor.sv(41) @ 605000: uvm_test_top.env.agt.mon [ram_monitor] wr=1 addr=0x20 wdata=0x2170 rdata=0xxxxx
UVM_INFO tb/ram_coverage.sv(39) @ 605000: uvm_test_top.env.cov [ram_coverage] ram_cg sampled: wr=1 addr=0x20 wdata=0x2170 rdata=0xxxxx
