linux_backup/Homework/0409_ram/simv_write_read.log
Info: [VCS_SAVE_RESTORE_INFO] ASLR (Address Space Layout Randomization) is detected on the machine. To enable $save functionality, ASLR will be switched off and simv re-executed.
Please use '-no_save' simv switch to avoid re-execution or '-suppress=ASLR_DETECTED_INFO' to suppress this message.
Chronologic VCS simulator copyright 1991-2024
Contains Synopsys proprietary information.
Compiler version W-2024.09-SP1_Full64; Runtime version W-2024.09-SP1_Full64;  Apr  9 19:22 2026
UVM_INFO /tools/synopsys/vcs/W-2024.09-SP1/etc/uvm-1.2/base/uvm_root.svh(402) @ 0: reporter [UVM/RELNOTES] 
----------------------------------------------------------------
UVM-1.2.Synopsys
(C) 2007-2014 Mentor Graphics Corporation
(C) 2007-2014 Cadence Design Systems, Inc.
(C) 2006-2014 Synopsys, Inc.
(C) 2011-2013 Cypress Semiconductor Corp.
(C) 2013-2014 NVIDIA Corporation
----------------------------------------------------------------

  ***********       IMPORTANT RELEASE NOTES         ************

  You are using a version of the UVM library that has been compiled
  with `UVM_NO_DEPRECATED undefined.
  See http://www.eda.org/svdb/view.php?id=3313 for more details.

  You are using a version of the UVM library that has been compiled
  with `UVM_OBJECT_DO_NOT_NEED_CONSTRUCTOR undefined.
  See http://www.eda.org/svdb/view.php?id=3770 for more details.

      (Specify +UVM_NO_RELNOTES to turn off this notice)


 VCS Coverage Metrics Release W-2024.09-SP1_Full64 Copyright (c) 1991-2024 by Synopsys Inc.
UVM_INFO @ 0: reporter [RNTST] Running test ram_write_read_test...
*Verdi* Loading libsscore_vcs202409.so
FSDB Dumper for VCS, Release Verdi_W-2024.09-SP2, Linux x86_64/64bit, 03/03/2025
(C) 1996 - 2025 by Synopsys, Inc.
*Verdi* FSDB WARNING: The FSDB file already exists. Overwriting the FSDB file may crash the programs that are using this file.
*Verdi* : Create FSDB file 'novas.fsdb'
*Verdi* ERROR: The #1 argument is invalid
*Verdi* ERROR: The #2 argument is invalid
*Verdi* ERROR: The #3 argument is invalid
*Verdi* ERROR: Syntax - $fsdbDumpfile("FSDB_Name"[,Limit_Size]);	: ./tb/tb_ram.sv(38)
UVM_INFO tb/ram_monitor.sv(41) @ 5000: uvm_test_top.env.agt.mon [ram_monitor] wr=x addr=0xxx wdata=0xxxxx rdata=0xxxxx
UVM_INFO tb/ram_coverage.sv(39) @ 5000: uvm_test_top.env.cov [ram_coverage] ram_cg sampled: wr=x addr=0xxx wdata=0xxxxx rdata=0xxxxx
UVM_INFO tb/ram_scoreboard.sv(39) @ 5000: uvm_test_top.env.scb [ram_scoreboard] PASS: addr=0xxx, expected=0xxxxx, real=0xxxxx
UVM_INFO tb/ram_driver.sv(38) @ 5000: uvm_test_top.env.agt.drv [ram_driver] wr=1 addr=0xab wdata=0x5185 rdata=0xxxxx
UVM_INFO tb/ram_monitor.sv(41) @ 25000: uvm_test_top.env.agt.mon [ram_monitor] wr=0 addr=0xab wdata=0x5185 rdata=0xxxxx
UVM_INFO tb/ram_coverage.sv(39) @ 25000: uvm_test_top.env.cov [ram_coverage] ram_cg sampled: wr=0 addr=0xab wdata=0x5185 rdata=0xxxxx
UVM_INFO tb/ram_scoreboard.sv(39) @ 25000: uvm_test_top.env.scb [ram_scoreboard] PASS: addr=0xab, expected=0xxxxx, real=0xxxxx
UVM_INFO tb/ram_driver.sv(38) @ 25000: uvm_test_top.env.agt.drv [ram_driver] wr=0 addr=0xab wdata=0x5185 rdata=0xxxxx
UVM_INFO tb/ram_monitor.sv(41) @ 35000: uvm_test_top.env.agt.mon [ram_monitor] wr=1 addr=0x59 wdata=0x503d rdata=0xxxxx
UVM_INFO tb/ram_coverage.sv(39) @ 35000: uvm_test_top.env.cov [ram_coverage] ram_cg sampled: wr=1 addr=0x59 wdata=0x503d rdata=0xxxxx
UVM_INFO tb/ram_scoreboard.sv(34) @ 35000: uvm_test_top.env.scb [ram_scoreboard] 쓰기 기록: addr=0x59, data=0x503d
UVM_INFO tb/ram_driver.sv(38) @ 35000: uvm_test_top.env.agt.drv [ram_driver] wr=1 addr=0x59 wdata=0x503d rdata=0xxxxx
UVM_INFO tb/ram_monitor.sv(41) @ 55000: uvm_test_top.env.agt.mon [ram_monitor] wr=0 addr=0x59 wdata=0x503d rdata=0x503d
UVM_INFO tb/ram_coverage.sv(39) @ 55000: uvm_test_top.env.cov [ram_coverage] ram_cg sampled: wr=0 addr=0x59 wdata=0x503d rdata=0x503d
UVM_INFO tb/ram_scoreboard.sv(39) @ 55000: uvm_test_top.env.scb [ram_scoreboard] PASS: addr=0x59, expected=0x503d, real=0x503d
UVM_INFO tb/ram_driver.sv(38) @ 55000: uvm_test_top.env.agt.drv [ram_driver] wr=0 addr=0x59 wdata=0x503d rdata=0xxxxx
UVM_INFO tb/ram_monitor.sv(41) @ 65000: uvm_test_top.env.agt.mon [ram_monitor] wr=1 addr=0xb2 wdata=0x7ff5 rdata=0xxxxx
UVM_INFO tb/ram_coverage.sv(39) @ 65000: uvm_test_top.env.cov [ram_coverage] ram_cg sampled: wr=1 addr=0xb2 wdata=0x7ff5 rdata=0xxxxx
UVM_INFO tb/ram_scoreboard.sv(34) @ 65000: uvm_test_top.env.scb [ram_scoreboard] 쓰기 기록: addr=0xb2, data=0x7ff5
UVM_INFO tb/ram_driver.sv(38) @ 65000: uvm_test_top.env.agt.drv [ram_driver] wr=1 addr=0xb2 wdata=0x7ff5 rdata=0xxxxx
UVM_INFO tb/ram_monitor.sv(41) @ 85000: uvm_test_top.env.agt.mon [ram_monitor] wr=0 addr=0xb2 wdata=0x7ff5 rdata=0x7ff5
UVM_INFO tb/ram_coverage.sv(39) @ 85000: uvm_test_top.env.cov [ram_coverage] ram_cg sampled: wr=0 addr=0xb2 wdata=0x7ff5 rdata=0x7ff5
UVM_INFO tb/ram_scoreboard.sv(39) @ 85000: uvm_test_top.env.scb [ram_scoreboard] PASS: addr=0xb2, expected=0x7ff5, real=0x7ff5
UVM_INFO tb/ram_driver.sv(38) @ 85000: uvm_test_top.env.agt.drv [ram_driver] wr=0 addr=0xb2 wdata=0x7ff5 rdata=0xxxxx
UVM_INFO tb/ram_monitor.sv(41) @ 95000: uvm_test_top.env.agt.mon [ram_monitor] wr=1 addr=0x21 wdata=0x3d17 rdata=0xxxxx
UVM_INFO tb/ram_coverage.sv(39) @ 95000: uvm_test_top.env.cov [ram_coverage] ram_cg sampled: wr=1 addr=0x21 wdata=0x3d17 rdata=0xxxxx
UVM_INFO tb/ram_scoreboard.sv(34) @ 95000: uvm_test_top.env.scb [ram_scoreboard] 쓰기 기록: addr=0x21, data=0x3d17
UVM_INFO tb/ram_driver.sv(38) @ 95000: uvm_test_top.env.agt.drv [ram_driver] wr=1 addr=0x21 wdata=0x3d17 rdata=0xxxxx
UVM_INFO tb/ram_monitor.sv(41) @ 115000: uvm_test_top.env.agt.mon [ram_monitor] wr=0 addr=0x21 wdata=0x3d17 rdata=0x3d17
UVM_INFO tb/ram_coverage.sv(39) @ 115000: uvm_test_top.env.cov [ram_coverage] ram_cg sampled: wr=0 addr=0x21 wdata=0x3d17 rdata=0x3d17
UVM_INFO tb/ram_scoreboard.sv(39) @ 115000: uvm_test_top.env.scb [ram_scoreboard] PASS: addr=0x21, expected=0x3d17, real=0x3d17
UVM_INFO tb/ram_driver.sv(38) @ 115000: uvm_test_top.env.agt.drv [ram_driver] wr=0 addr=0x21 wdata=0x3d17 rdata=0xxxxx
UVM_INFO tb/ram_monitor.sv(41) @ 125000: uvm_test_top.env.agt.mon [ram_monitor] wr=1 addr=0x40 wdata=0x336d rdata=0xxxxx
UVM_INFO tb/ram_coverage.sv(39) @ 125000: uvm_test_top.env.cov [ram_coverage] ram_cg sampled: wr=1 addr=0x40 wdata=0x336d rdata=0xxxxx
UVM_INFO tb/ram_scoreboard.sv(34) @ 125000: uvm_test_top.env.scb [ram_scoreboard] 쓰기 기록: addr=0x40, data=0x336d
UVM_INFO tb/ram_driver.sv(38) @ 125000: uvm_test_top.env.agt.drv [ram_driver] wr=1 addr=0x40 wdata=0x336d rdata=0xxxxx
UVM_INFO tb/ram_monitor.sv(41) @ 145000: uvm_test_top.env.agt.mon [ram_monitor] wr=0 addr=0x40 wdata=0x336d rdata=0x336d
UVM_INFO tb/ram_coverage.sv(39) @ 145000: uvm_test_top.env.cov [ram_coverage] ram_cg sampled: wr=0 addr=0x40 wdata=0x336d rdata=0x336d
UVM_INFO tb/ram_scoreboard.sv(39) @ 145000: uvm_test_top.env.scb [ram_scoreboard] PASS: addr=0x40, expected=0x336d, real=0x336d
UVM_INFO tb/ram_driver.sv(38) @ 145000: uvm_test_top.env.agt.drv [ram_driver] wr=0 addr=0x40 wdata=0x336d rdata=0xxxxx
UVM_INFO tb/ram_monitor.sv(41) @ 155000: uvm_test_top.env.agt.mon [ram_monitor] wr=1 addr=0x67 wdata=0xa10f rdata=0xxxxx
UVM_INFO tb/ram_coverage.sv(39) @ 155000: uvm_test_top.env.cov [ram_coverage] ram_cg sampled: wr=1 addr=0x67 wdata=0xa10f rdata=0xxxxx
UVM_INFO tb/ram_scoreboard.sv(34) @ 155000: uvm_test_top.env.scb [ram_scoreboard] 쓰기 기록: addr=0x67, data=0xa10f
UVM_INFO tb/ram_driver.sv(38) @ 155000: uvm_test_top.env.agt.drv [ram_driver] wr=1 addr=0x67 wdata=0xa10f rdata=0xxxxx
UVM_INFO tb/ram_monitor.sv(41) @ 175000: uvm_test_top.env.agt.mon [ram_monitor] wr=0 addr=0x67 wdata=0xa10f rdata=0xa10f
UVM_INFO tb/ram_coverage.sv(39) @ 175000: uvm_test_top.env.cov [ram_coverage] ram_cg sampled: wr=0 addr=0x67 wdata=0xa10f rdata=0xa10f
UVM_INFO tb/ram_scoreboard.sv(39) @ 175000: uvm_test_top.env.scb [ram_scoreboard] PASS: addr=0x67, expected=0xa10f, real=0xa10f
UVM_INFO tb/ram_driver.sv(38) @ 175000: uvm_test_top.env.agt.drv [ram_driver] wr=0 addr=0x67 wdata=0xa10f rdata=0xxxxx
UVM_INFO tb/ram_monitor.sv(41) @ 185000: uvm_test_top.env.agt.mon [ram_monitor] wr=1 addr=0x51 wdata=0x191a rdata=0xxxxx
UVM_INFO tb/ram_coverage.sv(39) @ 185000: uvm_test_top.env.cov [ram_coverage] ram_cg sampled: wr=1 addr=0x51 wdata=0x191a rdata=0xxxxx
UVM_INFO tb/ram_scoreboard.sv(34) @ 185000: uvm_test_top.env.scb [ram_scoreboard] 쓰기 기록: addr=0x51, data=0x191a
UVM_INFO tb/ram_driver.sv(38) @ 185000: uvm_test_top.env.agt.drv [ram_driver] wr=1 addr=0x51 wdata=0x191a rdata=0xxxxx
UVM_INFO tb/ram_monitor.sv(41) @ 205000: uvm_test_top.env.agt.mon [ram_monitor] wr=0 addr=0x51 wdata=0x191a rdata=0x191a
UVM_INFO tb/ram_coverage.sv(39) @ 205000: uvm_test_top.env.cov [ram_coverage] ram_cg sampled: wr=0 addr=0x51 wdata=0x191a rdata=0x191a
UVM_INFO tb/ram_scoreboard.sv(39) @ 205000: uvm_test_top.env.scb [ram_scoreboard] PASS: addr=0x51, expected=0x191a, real=0x191a
UVM_INFO tb/ram_driver.sv(38) @ 205000: uvm_test_top.env.agt.drv [ram_driver] wr=0 addr=0x51 wdata=0x191a rdata=0xxxxx
UVM_INFO tb/ram_monitor.sv(41) @ 215000: uvm_test_top.env.agt.mon [ram_monitor] wr=1 addr=0x0f wdata=0xf47c rdata=0xxxxx
UVM_INFO tb/ram_coverage.sv(39) @ 215000: uvm_test_top.env.cov [ram_coverage] ram_cg sampled: wr=1 addr=0x0f wdata=0xf47c rdata=0xxxxx
UVM_INFO tb/ram_scoreboard.sv(34) @ 215000: uvm_test_top.env.scb [ram_scoreboard] 쓰기 기록: addr=0x0f, data=0xf47c
UVM_INFO tb/ram_driver.sv(38) @ 215000: uvm_test_top.env.agt.drv [ram_driver] wr=1 addr=0x0f wdata=0xf47c rdata=0xxxxx
UVM_INFO tb/ram_monitor.sv(41) @ 235000: uvm_test_top.env.agt.mon [ram_monitor] wr=0 addr=0x0f wdata=0xf47c rdata=0xf47c
UVM_INFO tb/ram_coverage.sv(39) @ 235000: uvm_test_top.env.cov [ram_coverage] ram_cg sampled: wr=0 addr=0x0f wdata=0xf47c rdata=0xf47c
UVM_INFO tb/ram_scoreboard.sv(39) @ 235000: uvm_test_top.env.scb [ram_scoreboard] PASS: addr=0x0f, expected=0xf47c, real=0xf47c
UVM_INFO tb/ram_driver.sv(38) @ 235000: uvm_test_top.env.agt.drv [ram_driver] wr=0 addr=0x0f wdata=0xf47c rdata=0xxxxx
UVM_INFO tb/ram_monitor.sv(41) @ 245000: uvm_test_top.env.agt.mon [ram_monitor] wr=1 addr=0xc2 wdata=0x127b rdata=0xxxxx
UVM_INFO tb/ram_coverage.sv(39) @ 245000: uvm_test_top.env.cov [ram_coverage] ram_cg sampled: wr=1 addr=0xc2 wdata=0x127b rdata=0xxxxx
UVM_INFO tb/ram_scoreboard.sv(34) @ 245000: uvm_test_top.env.scb [ram_scoreboard] 쓰기 기록: addr=0xc2, data=0x127b
UVM_INFO tb/ram_driver.sv(38) @ 245000: uvm_test_top.env.agt.drv [ram_driver] wr=1 addr=0xc2 wdata=0x127b rdata=0xxxxx
UVM_INFO tb/ram_monitor.sv(41) @ 265000: uvm_test_top.env.agt.mon [ram_monitor] wr=0 addr=0xc2 wdata=0x127b rdata=0x127b
UVM_INFO tb/ram_coverage.sv(39) @ 265000: uvm_test_top.env.cov [ram_coverage] ram_cg sampled: wr=0 addr=0xc2 wdata=0x127b rdata=0x127b
UVM_INFO tb/ram_scoreboard.sv(39) @ 265000: uvm_test_top.env.scb [ram_scoreboard] PASS: addr=0xc2, expected=0x127b, real=0x127b
UVM_INFO tb/ram_driver.sv(38) @ 265000: uvm_test_top.env.agt.drv [ram_driver] wr=0 addr=0xc2 wdata=0x127b rdata=0xxxxx
UVM_INFO tb/ram_monitor.sv(41) @ 275000: uvm_test_top.env.agt.mon [ram_monitor] wr=1 addr=0x08 wdata=0xac3e rdata=0xxxxx
UVM_INFO tb/ram_coverage.sv(39) @ 275000: uvm_test_top.env.cov [ram_coverage] ram_cg sampled: wr=1 addr=0x08 wdata=0xac3e rdata=0xxxxx
UVM_INFO tb/ram_scoreboard.sv(34) @ 275000: uvm_test_top.env.scb [ram_scoreboard] 쓰기 기록: addr=0x08, data=0xac3e
UVM_INFO tb/ram_driver.sv(38) @ 275000: uvm_test_top.env.agt.drv [ram_driver] wr=1 addr=0x08 wdata=0xac3e rdata=0xxxxx
UVM_INFO tb/ram_monitor.sv(41) @ 295000: uvm_test_top.env.agt.mon [ram_monitor] wr=0 addr=0x08 wdata=0xac3e rdata=0xac3e
UVM_INFO tb/ram_coverage.sv(39) @ 295000: uvm_test_top.env.cov [ram_coverage] ram_cg sampled: wr=0 addr=0x08 wdata=0xac3e rdata=0xac3e
UVM_INFO tb/ram_scoreboard.sv(39) @ 295000: uvm_test_top.env.scb [ram_scoreboard] PASS: addr=0x08, expected=0xac3e, real=0xac3e
UVM_INFO tb/ram_driver.sv(38) @ 295000: uvm_test_top.env.agt.drv [ram_driver] wr=0 addr=0x08 wdata=0xac3e rdata=0xxxxx
UVM_INFO tb/ram_test.sv(47) @ 295000: uvm_test_top [TEST] ram_write_read_sequence test 완료
UVM_INFO tb/ram_test.sv(29) @ 295000: uvm_test_top [TEST] ram test 완료
UVM_INFO /tools/synopsys/vcs/W-2024.09-SP1/etc/uvm-1.2/base/uvm_objection.svh(1276) @ 295000: reporter [TEST_DONE] 'run' phase is ready to proceed to the 'extract' phase
UVM_INFO tb/ram_coverage.sv(42) @ 295000: uvm_test_top.env.cov [ram_coverage] ===== Coverage Summary =====
UVM_INFO tb/ram_coverage.sv(43) @ 295000: uvm_test_top.env.cov [ram_coverage]    Overall: 42.7%
UVM_INFO tb/ram_coverage.sv(44) @ 295000: uvm_test_top.env.cov [ram_coverage]    wr     : 100.0%
UVM_INFO tb/ram_coverage.sv(45) @ 295000: uvm_test_top.env.cov [ram_coverage]    addr   : 40.0%
UVM_INFO tb/ram_coverage.sv(46) @ 295000: uvm_test_top.env.cov [ram_coverage]    data   : 16.7%
UVM_INFO tb/ram_coverage.sv(47) @ 295000: uvm_test_top.env.cov [ram_coverage]    cross(wr, addr): 40.0%
UVM_INFO tb/ram_coverage.sv(48) @ 295000: uvm_test_top.env.cov [ram_coverage]    cross(wr, data): 16.7%
UVM_INFO tb/ram_coverage.sv(49) @ 295000: uvm_test_top.env.cov [ram_coverage]  ===== Coverage Summary =====


UVM_INFO tb/ram_scoreboard.sv(48) @ 295000: uvm_test_top.env.scb [ram_scoreboard]  ===== Scoreboard Summay =====
UVM_INFO tb/ram_scoreboard.sv(49) @ 295000: uvm_test_top.env.scb [ram_scoreboard]    Total transactions: 20
UVM_INFO tb/ram_scoreboard.sv(50) @ 295000: uvm_test_top.env.scb [ram_scoreboard]    Pass: 20
UVM_INFO tb/ram_scoreboard.sv(51) @ 295000: uvm_test_top.env.scb [ram_scoreboard]    Fail: 0
UVM_INFO tb/ram_scoreboard.sv(55) @ 295000: uvm_test_top.env.scb [ram_scoreboard] TEST PASSED; 20 all matches detected.
UVM_INFO /tools/synopsys/vcs/W-2024.09-SP1/etc/uvm-1.2/base/uvm_report_catcher.svh(705) @ 295000: reporter [UVM/REPORT/CATCHER] 
--- UVM Report catcher Summary ---


Number of demoted UVM_FATAL reports  :    0
Number of demoted UVM_ERROR reports  :    0
Number of demoted UVM_WARNING reports:    0
Number of caught UVM_FATAL reports   :    0
Number of caught UVM_ERROR reports   :    0
Number of caught UVM_WARNING reports :    0

UVM_INFO /tools/synopsys/vcs/W-2024.09-SP1/etc/uvm-1.2/base/uvm_report_server.svh(904) @ 295000: reporter [UVM/REPORT/SERVER] 
--- UVM Report Summary ---

** Report counts by severity
UVM_INFO :   99
UVM_WARNING :    0
UVM_ERROR :    0
UVM_FATAL :    0
** Report counts by id
[RNTST]     1
[TEST]     2
[TEST_DONE]     1
[UVM/RELNOTES]     1
[UVM/REPORT/CATCHER]     1
[ram_coverage]    28
[ram_driver]    20
[ram_monitor]    20
[ram_scoreboard]    25

$finish called from file "/tools/synopsys/vcs/W-2024.09-SP1/etc/uvm-1.2/base/uvm_root.svh", line 527.
$finish at simulation time               295000

---------------------------------------------------------------------------
VCS Coverage Metrics: during simulation line, cond, FSM, branch, tgl was monitored
---------------------------------------------------------------------------

 Coverage status: End of All Coverages ...

           V C S   S i m u l a t i o n   R e p o r t 
Time: 295000 ps
CPU Time:      0.220 seconds;       Data structure size:   0.6Mb
Thu Apr  9 19:22:27 2026
